{
  "Version": "2012-10-17",
  "Statement": [
    {
      "Sid": "allowLoggingToCloudWatch",
      "Effect": "Allow",
      "Action": [
        "logs:*"
      ],
      "Resource": [
        "${sonarqube_log_group_arn}"
      ]
    }
  ]
}
